module gitea.com/rammiah/greeting

go 1.20

replace github.com/apache/thrift => github.com/apache/thrift v0.13.0

require (
	github.com/apache/thrift v0.13.0
	github.com/cloudwego/kitex v0.6.2
)

require (
	github.com/bytedance/gopkg v0.0.0-20230531144706-a12972768317 // indirect
	github.com/bytedance/sonic v1.8.8 // indirect
	github.com/chenzhuoyu/base64x v0.0.0-20221115062448-fe3a3abad311 // indirect
	github.com/chenzhuoyu/iasm v0.0.0-20230222070914-0b1b64b0e762 // indirect
	github.com/choleraehyq/pid v0.0.16 // indirect
	github.com/cloudwego/configmanager v0.2.0 // indirect
	github.com/cloudwego/fastpb v0.0.4 // indirect
	github.com/cloudwego/frugal v0.1.6 // indirect
	github.com/cloudwego/netpoll v0.4.0 // indirect
	github.com/cloudwego/thriftgo v0.2.11 // indirect
	github.com/golang/protobuf v1.5.2 // indirect
	github.com/google/pprof v0.0.0-20220608213341-c488b8fa1db3 // indirect
	github.com/jhump/protoreflect v1.8.2 // indirect
	github.com/json-iterator/go v1.1.12 // indirect
	github.com/klauspost/cpuid/v2 v2.2.4 // indirect
	github.com/modern-go/concurrent v0.0.0-20180228061459-e0a39a4cb421 // indirect
	github.com/modern-go/reflect2 v1.0.2 // indirect
	github.com/oleiade/lane v1.0.1 // indirect
	github.com/tidwall/gjson v1.9.3 // indirect
	github.com/tidwall/match v1.1.1 // indirect
	github.com/tidwall/pretty v1.2.0 // indirect
	github.com/twitchyliquid64/golang-asm v0.15.1 // indirect
	golang.org/x/arch v0.2.0 // indirect
	golang.org/x/net v0.0.0-20221014081412-f15817d10f9b // indirect
	golang.org/x/sync v0.0.0-20220722155255-886fb9371eb4 // indirect
	golang.org/x/sys v0.0.0-20220817070843-5a390386f1f2 // indirect
	golang.org/x/text v0.6.0 // indirect
	google.golang.org/genproto v0.0.0-20210513213006-bf773b8c8384 // indirect
	google.golang.org/protobuf v1.28.1 // indirect
	gopkg.in/yaml.v3 v3.0.1 // indirect
)
